DFF/dump.vcd
$date
	Wed Jan 21 23:33:09 2026
$end
$version
	QuestaSim Version 10.6c
$end
$timescale
	1ns
$end

$scope module DFF_tb $end

$scope module DFF_instance $end
$var wire 1 ! clk $end
$var wire 1 " rst_n $end
$var wire 1 # d $end
$var reg 1 $ q $end
$var reg 1 % temp $end

$scope begin proc_q $end
$upscope $end
$upscope $end
$upscope $end

$scope begin DFF_tb_sv_unit $end
$var integer 32 & clk_period $end
$upscope $end

$scope begin std $end
$upscope $end
$enddefinitions $end
#0
$dumpvars
x$
x%
b10100 &
0!
1"
1#
$end
#10
1!
1%
1$
#20
0!
#30
1!
#40
0!
#50
1!
#60
0!
#70
1!
#80
0#
0!
#90
1!
0%
0$
#100
0!
#110
1!
#120
1#
0!
#130
1!
1%
1$
#140
0!
#150
1!
#160
0#
0!
#170
1!
0%
0$
#180
0!
#190
1!
#200
1#
0!
#210
1!
1%
1$
#220
0!
#230
1!
#240
0#
0!
#250
1!
0%
0$
#260
0!
#270
1!
#280
1#
0!
#290
1!
1%
1$
#300
0!
#310
1!
#320
0#
0!
#330
1!
0%
0$
#340
0!
#350
1!
#360
0!
#370
1!
#380
0!
#390
1!
#400
1#
0!
#410
1!
1%
1$
#420
0!
#430
1!
#440
0#
0!
#450
1!
0%
0$
#460
0!
#470
1!
#480
0!
#490
1!
#500
0!
#510
1!
#520
1#
0!
#530
1!
1%
1$
#540
0!
#550
1!
#560
0#
0!
#570
1!
0%
0$
#580
0!
#590
1!
#600
0!
#610
1!
#620
0!
#630
1!
#640
1#
0!
#650
1!
1%
1$
